{
    "content": [
        {
            "uuid": "678bda4d-c370-4054-a700-309811965a17",
            "userId": "barobill",
            "uri": "/fm/card/ApprovalHistoryInquiryID",
            "type": "CARD",
            "fcode": "MCBCCM",
            "hash": "a612712aee3f74fefe4bfebba7fe9255636c7f839610d4bf8fdbf67b032311f8",
            "encData": "94303175****2227",
            "reqTime": [
                2022,
                4,
                1,
                6,
                51,
                41,
                18
            ],
            "errCode": "0000",
            "resTime": [
                2022,
                4,
                1,
                6,
                51,
                44,
                646
            ],
            "result": "SUCCESS",
            "ecode": "",
            "errmsg": "",
            "etrack": "",
            "listCount": 17
        },
        {
            "uuid": "e7fc30b1-647b-41dd-b29c-58374dba372b",
            "userId": "barobill",
            "uri": "/fm/card/ApprovalHistoryInquiryID",
            "type": "CARD",
            "fcode": "MCBCCM",
            "hash": "a612712aee3f74fefe4bfebba7fe9255636c7f839610d4bf8fdbf67b032311f8",
            "encData": "94303175****2227",
            "reqTime": [
                2022,
                4,
                1,
                6,
                52,
                48,
                741
            ],
            "errCode": "0000",
            "resTime": [
                2022,
                4,
                1,
                6,
                52,
                51,
                561
            ],
            "result": "SUCCESS",
            "ecode": "",
            "errmsg": "",
            "etrack": "",
            "listCount": 7
        },
        {
            "uuid": "6dfecd38-b573-40d8-9d7a-0d8d1cac1e3b",
            "userId": "barobill",
            "uri": "/fm/card/ApprovalHistoryInquiryID",
            "type": "CARD",
            "fcode": "MCBCCM",
            "hash": "a612712aee3f74fefe4bfebba7fe9255636c7f839610d4bf8fdbf67b032311f8",
            "encData": "94303175****2227",
            "reqTime": [
                2022,
                4,
                1,
                6,
                54,
                3,
                501
            ],
            "errCode": "0000",
            "resTime": [
                2022,
                4,
                1,
                6,
                54,
                6,
                479
            ],
            "result": "SUCCESS",
            "ecode": "",
            "errmsg": "",
            "etrack": "",
            "listCount": 10
        },
        {
            "uuid": "4c1429ea-dd64-4bf5-b3a0-9763463c139d",
            "userId": "barobill",
            "uri": "/fm/card/ApprovalHistoryInquiryID",
            "type": "CARD",
            "fcode": "MCBCCM",
            "hash": "a612712aee3f74fefe4bfebba7fe9255636c7f839610d4bf8fdbf67b032311f8",
            "encData": "94303175****2227",
            "reqTime": [
                2022,
                4,
                1,
                6,
                54,
                32,
                173
            ],
            "errCode": "0000",
            "resTime": [
                2022,
                4,
                1,
                6,
                54,
                35,
                67
            ],
            "result": "SUCCESS",
            "ecode": "",
            "errmsg": "",
            "etrack": "",
            "listCount": 10
        },
        {
            "uuid": "224fc0c0-52eb-4e62-b45a-c9e4fc832cf1",
            "userId": "barobill",
            "uri": "/fm/card/ApprovalHistoryInquiryID",
            "type": "CARD",
            "fcode": "MCBCCM",
            "hash": "a612712aee3f74fefe4bfebba7fe9255636c7f839610d4bf8fdbf67b032311f8",
            "encData": "94303175****2227",
            "reqTime": [
                2022,
                4,
                1,
                7,
                6,
                53,
                379
            ],
            "errCode": "0000",
            "resTime": [
                2022,
                4,
                1,
                7,
                6,
                56,
                23
            ],
            "result": "SUCCESS",
            "ecode": "",
            "errmsg": "",
            "etrack": "",
            "listCount": 10
        },
        {
            "uuid": "21ac77a9-55af-4321-a30e-283e2e1adec0",
            "userId": "barobill",
            "uri": "/fm/card/ApprovalHistoryInquiryID",
            "type": "CARD",
            "fcode": "MCBCCM",
            "hash": "a612712aee3f74fefe4bfebba7fe9255636c7f839610d4bf8fdbf67b032311f8",
            "encData": "94303175****2227",
            "reqTime": [
                2022,
                4,
                1,
                7,
                6,
                56,
                231
            ],
            "errCode": "0000",
            "resTime": [
                2022,
                4,
                1,
                7,
                6,
                59,
                260
            ],
            "result": "SUCCESS",
            "ecode": "",
            "errmsg": "",
            "etrack": "",
            "listCount": 13
        },
        {
            "uuid": "1c460a1a-e639-44b8-8319-9274abc1cd60",
            "userId": "barobill",
            "uri": "/fm/card/ApprovalHistoryInquiryID",
            "type": "CARD",
            "fcode": "MCBCCM",
            "hash": "a612712aee3f74fefe4bfebba7fe9255636c7f839610d4bf8fdbf67b032311f8",
            "encData": "94303175****2227",
            "reqTime": [
                2022,
                4,
                1,
                7,
                6,
                59,
                349
            ],
            "errCode": "0000",
            "resTime": [
                2022,
                4,
                1,
                7,
                7,
                1,
                753
            ],
            "result": "SUCCESS",
            "ecode": "",
            "errmsg": "",
            "etrack": "",
            "listCount": 4
        },
        {
            "uuid": "c4280a76-25f9-4c3d-8d9f-5e87517ad166",
            "userId": "barobill",
            "uri": "/fm/card/ApprovalHistoryInquiryID",
            "type": "CARD",
            "fcode": "MCKKCM",
            "hash": "e7388dbc35bb8679d8c38c7257e674cf7c681bbb45ca9ca3c46a0d5215b0c4e4",
            "encData": "12341234****1234",
            "reqTime": [
                2022,
                5,
                17,
                7,
                55,
                18,
                798
            ],
            "errCode": "0000",
            "resTime": [
                2022,
                5,
                17,
                7,
                55,
                20,
                575
            ],
            "result": "FAIL",
            "ecode": "ERR_MWMSG_VER20400",
            "errmsg": "[버전서버]스크립트 파일없음",
            "etrack": "20400",
            "listCount": 0
        },{
            "uuid": "678bda4d-c370-4054-a700-309811965a17",
            "userId": "barobill",
            "uri": "/fm/card/ApprovalHistoryInquiryID",
            "type": "CARD",
            "fcode": "MCBCCM",
            "hash": "a612712aee3f74fefe4bfebba7fe9255636c7f839610d4bf8fdbf67b032311f8",
            "encData": "94303175****2227",
            "reqTime": [
                2022,
                4,
                1,
                6,
                51,
                41,
                18
            ],
            "errCode": "0000",
            "resTime": [
                2022,
                4,
                1,
                6,
                51,
                44,
                646
            ],
            "result": "SUCCESS",
            "ecode": "",
            "errmsg": "",
            "etrack": "",
            "listCount": 17
        },{
            "uuid": "678bda4d-c370-4054-a700-309811965a17",
            "userId": "barobill",
            "uri": "/fm/card/ApprovalHistoryInquiryID",
            "type": "CARD",
            "fcode": "MCBCCM",
            "hash": "a612712aee3f74fefe4bfebba7fe9255636c7f839610d4bf8fdbf67b032311f8",
            "encData": "94303175****2227",
            "reqTime": [
                2022,
                4,
                1,
                6,
                51,
                41,
                18
            ],
            "errCode": "0000",
            "resTime": [
                2022,
                4,
                1,
                6,
                51,
                44,
                646
            ],
            "result": "SUCCESS",
            "ecode": "",
            "errmsg": "",
            "etrack": "",
            "listCount": 17
        },{
            "uuid": "678bda4d-c370-4054-a700-309811965a17",
            "userId": "barobill",
            "uri": "/fm/card/ApprovalHistoryInquiryID",
            "type": "CARD",
            "fcode": "MCBCCM",
            "hash": "a612712aee3f74fefe4bfebba7fe9255636c7f839610d4bf8fdbf67b032311f8",
            "encData": "94303175****2227",
            "reqTime": [
                2022,
                4,
                1,
                6,
                51,
                41,
                18
            ],
            "errCode": "0000",
            "resTime": [
                2022,
                4,
                1,
                6,
                51,
                44,
                646
            ],
            "result": "SUCCESS",
            "ecode": "",
            "errmsg": "",
            "etrack": "",
            "listCount": 17
        },{
            "uuid": "c4280a76-25f9-4c3d-8d9f-5e87517ad166",
            "userId": "barobill",
            "uri": "/fm/card/ApprovalHistoryInquiryID",
            "type": "CARD",
            "fcode": "MCKKCM",
            "hash": "e7388dbc35bb8679d8c38c7257e674cf7c681bbb45ca9ca3c46a0d5215b0c4e4",
            "encData": "12341234****1234",
            "reqTime": [
                2022,
                5,
                17,
                7,
                55,
                18,
                798
            ],
            "errCode": "0000",
            "resTime": [
                2022,
                5,
                17,
                7,
                55,
                20,
                575
            ],
            "result": "FAIL",
            "ecode": "ERR_MWMSG_VER20400",
            "errmsg": "[버전서버]스크립트 파일없음",
            "etrack": "20400",
            "listCount": 0
        },{
            "uuid": "678bda4d-c370-4054-a700-309811965a17",
            "userId": "barobill",
            "uri": "/fm/card/ApprovalHistoryInquiryID",
            "type": "CARD",
            "fcode": "MCBCCM",
            "hash": "a612712aee3f74fefe4bfebba7fe9255636c7f839610d4bf8fdbf67b032311f8",
            "encData": "94303175****2227",
            "reqTime": [
                2022,
                4,
                1,
                6,
                51,
                41,
                18
            ],
            "errCode": "0000",
            "resTime": [
                2022,
                4,
                1,
                6,
                51,
                44,
                646
            ],
            "result": "SUCCESS",
            "ecode": "",
            "errmsg": "",
            "etrack": "",
            "listCount": 17
        },{
            "uuid": "678bda4d-c370-4054-a700-309811965a17",
            "userId": "barobill",
            "uri": "/fm/card/ApprovalHistoryInquiryID",
            "type": "CARD",
            "fcode": "MCBCCM",
            "hash": "a612712aee3f74fefe4bfebba7fe9255636c7f839610d4bf8fdbf67b032311f8",
            "encData": "94303175****2227",
            "reqTime": [
                2022,
                4,
                1,
                6,
                51,
                41,
                18
            ],
            "errCode": "0000",
            "resTime": [
                2022,
                4,
                1,
                6,
                51,
                44,
                646
            ],
            "result": "SUCCESS",
            "ecode": "",
            "errmsg": "",
            "etrack": "",
            "listCount": 17
        },{
            "uuid": "678bda4d-c370-4054-a700-309811965a17",
            "userId": "barobill",
            "uri": "/fm/card/ApprovalHistoryInquiryID",
            "type": "CARD",
            "fcode": "MCBCCM",
            "hash": "a612712aee3f74fefe4bfebba7fe9255636c7f839610d4bf8fdbf67b032311f8",
            "encData": "94303175****2227",
            "reqTime": [
                2022,
                4,
                1,
                6,
                51,
                41,
                18
            ],
            "errCode": "0000",
            "resTime": [
                2022,
                4,
                1,
                6,
                51,
                44,
                646
            ],
            "result": "SUCCESS",
            "ecode": "",
            "errmsg": "",
            "etrack": "",
            "listCount": 17
        },{
            "uuid": "c4280a76-25f9-4c3d-8d9f-5e87517ad166",
            "userId": "barobill",
            "uri": "/fm/card/ApprovalHistoryInquiryID",
            "type": "CARD",
            "fcode": "MCKKCM",
            "hash": "e7388dbc35bb8679d8c38c7257e674cf7c681bbb45ca9ca3c46a0d5215b0c4e4",
            "encData": "12341234****1234",
            "reqTime": [
                2022,
                5,
                17,
                7,
                55,
                18,
                798
            ],
            "errCode": "0000",
            "resTime": [
                2022,
                5,
                17,
                7,
                55,
                20,
                575
            ],
            "result": "FAIL",
            "ecode": "ERR_MWMSG_VER20400",
            "errmsg": "[버전서버]스크립트 파일없음",
            "etrack": "20400",
            "listCount": 0
        },{
            "uuid": "678bda4d-c370-4054-a700-309811965a17",
            "userId": "barobill",
            "uri": "/fm/card/ApprovalHistoryInquiryID",
            "type": "CARD",
            "fcode": "MCBCCM",
            "hash": "a612712aee3f74fefe4bfebba7fe9255636c7f839610d4bf8fdbf67b032311f8",
            "encData": "94303175****2227",
            "reqTime": [
                2022,
                4,
                1,
                6,
                51,
                41,
                18
            ],
            "errCode": "0000",
            "resTime": [
                2022,
                4,
                1,
                6,
                51,
                44,
                646
            ],
            "result": "SUCCESS",
            "ecode": "",
            "errmsg": "",
            "etrack": "",
            "listCount": 17
        },{
            "uuid": "678bda4d-c370-4054-a700-309811965a17",
            "userId": "barobill",
            "uri": "/fm/card/ApprovalHistoryInquiryID",
            "type": "CARD",
            "fcode": "MCBCCM",
            "hash": "a612712aee3f74fefe4bfebba7fe9255636c7f839610d4bf8fdbf67b032311f8",
            "encData": "94303175****2227",
            "reqTime": [
                2022,
                4,
                1,
                6,
                51,
                41,
                18
            ],
            "errCode": "0000",
            "resTime": [
                2022,
                4,
                1,
                6,
                51,
                44,
                646
            ],
            "result": "SUCCESS",
            "ecode": "",
            "errmsg": "",
            "etrack": "",
            "listCount": 17
        },{
            "uuid": "678bda4d-c370-4054-a700-309811965a17",
            "userId": "barobill",
            "uri": "/fm/card/ApprovalHistoryInquiryID",
            "type": "CARD",
            "fcode": "MCBCCM",
            "hash": "a612712aee3f74fefe4bfebba7fe9255636c7f839610d4bf8fdbf67b032311f8",
            "encData": "94303175****2227",
            "reqTime": [
                2022,
                4,
                1,
                6,
                51,
                41,
                18
            ],
            "errCode": "0000",
            "resTime": [
                2022,
                4,
                1,
                6,
                51,
                44,
                646
            ],
            "result": "SUCCESS",
            "ecode": "",
            "errmsg": "",
            "etrack": "",
            "listCount": 17
        },{
            "uuid": "c4280a76-25f9-4c3d-8d9f-5e87517ad166",
            "userId": "barobill",
            "uri": "/fm/card/ApprovalHistoryInquiryID",
            "type": "CARD",
            "fcode": "MCKKCM",
            "hash": "e7388dbc35bb8679d8c38c7257e674cf7c681bbb45ca9ca3c46a0d5215b0c4e4",
            "encData": "12341234****1234",
            "reqTime": [
                2022,
                5,
                17,
                7,
                55,
                18,
                798
            ],
            "errCode": "0000",
            "resTime": [
                2022,
                5,
                17,
                7,
                55,
                20,
                575
            ],
            "result": "FAIL",
            "ecode": "ERR_MWMSG_VER20400",
            "errmsg": "[버전서버]스크립트 파일없음",
            "etrack": "20400",
            "listCount": 0
        },{
            "uuid": "678bda4d-c370-4054-a700-309811965a17",
            "userId": "barobill",
            "uri": "/fm/card/ApprovalHistoryInquiryID",
            "type": "CARD",
            "fcode": "MCBCCM",
            "hash": "a612712aee3f74fefe4bfebba7fe9255636c7f839610d4bf8fdbf67b032311f8",
            "encData": "94303175****2227",
            "reqTime": [
                2022,
                4,
                1,
                6,
                51,
                41,
                18
            ],
            "errCode": "0000",
            "resTime": [
                2022,
                4,
                1,
                6,
                51,
                44,
                646
            ],
            "result": "SUCCESS",
            "ecode": "",
            "errmsg": "",
            "etrack": "",
            "listCount": 17
        }
    ],
    "pageable": {
        "sort": {
            "sorted": false,
            "unsorted": true,
            "empty": true
        },
        "pageSize": 20,
        "pageNumber": 11,
        "offset": 220,
        "paged": true,
        "unpaged": false
    },
    "last": true,
    "totalPages": 12,
    "totalElements": 228,
    "sort": {
        "sorted": false,
        "unsorted": true,
        "empty": true
    },
    "numberOfElements": 8,
    "first": false,
    "size": 20,
    "number": 11,
    "empty": false
}